\relax 
\catcode `"\active 
\citation{coulouris2013sistemas}
\select@language{portuges}
\@writefile{toc}{\select@language{portuges}}
\@writefile{lof}{\select@language{portuges}}
\@writefile{lot}{\select@language{portuges}}
\@writefile{toc}{\contentsline {section}{\numberline {1}Introdu\IeC {\c c}\IeC {\~a}o}{1}}
\newlabel{sec:introducao}{{1}{1}}
\@writefile{toc}{\contentsline {section}{\numberline {2}Sistemas Distribu\IeC {\'\i }dos}{1}}
\newlabel{sec:trabrel}{{2}{1}}
\@writefile{toc}{\contentsline {section}{\numberline {3}Caracter\IeC {\'\i }sticas de um Sistema Distribu\IeC {\'\i }do}{2}}
\newlabel{sec:trabrel}{{3}{2}}
\@writefile{toc}{\contentsline {subsection}{\numberline {3.1}Heterogeneidade}{3}}
\bibstyle{sbc}
\bibdata{biblio/bibliografia}
\bibcite{coulouris2013sistemas}{Coulouris et~al. 2013}
\@writefile{toc}{\contentsline {section}{\numberline {4}Conclus\IeC {\~a}o }{7}}
\newlabel{sec:conclusao}{{4}{7}}
